…
My proposed model is to use birthweight to model with “babysex +
blength + delwt + gaweeks + mheight + mrace + ppwt +smoken” all these
variables as our basic model for the later use to compare with the later
two others. Then we add prediction and add residuals into the model,
here is the plot for the fitted values and residuals.

``` r
birth_data |> 
  gather_predictions(initial_model, model_length_ga, model_head_len_sex_interactions) |> 
  mutate(model = fct_inorder(model))
```

    ## # A tibble: 13,026 × 23
    ##    model         babysex bhead blength   bwt delwt fincome frace gaweeks malform
    ##    <fct>         <fct>   <dbl>   <dbl> <dbl> <dbl>   <dbl> <fct>   <dbl> <fct>  
    ##  1 initial_model 2          34      51  3629   177      35 1        39.9 0      
    ##  2 initial_model 1          34      48  3062   156      65 2        25.9 0      
    ##  3 initial_model 2          36      50  3345   148      85 1        39.9 0      
    ##  4 initial_model 1          34      52  3062   157      55 1        40   0      
    ##  5 initial_model 2          34      52  3374   156       5 1        41.6 0      
    ##  6 initial_model 1          33      52  3374   129      55 1        40.7 0      
    ##  7 initial_model 2          33      46  2523   126      96 2        40.3 0      
    ##  8 initial_model 2          33      49  2778   140       5 1        37.4 0      
    ##  9 initial_model 1          36      52  3515   146      85 1        40.3 0      
    ## 10 initial_model 1          33      50  3459   169      75 2        40.7 0      
    ## # ℹ 13,016 more rows
    ## # ℹ 13 more variables: menarche <dbl>, mheight <dbl>, momage <dbl>,
    ## #   mrace <fct>, parity <dbl>, pnumlbw <dbl>, pnumsga <dbl>, ppbmi <dbl>,
    ## #   ppwt <dbl>, smoken <dbl>, wtgain <dbl>, pred <dbl>, resid <dbl>
…
cv_df = 
  cv_df |> 
  mutate(
    initial_model  = map(train, \(df) lm(bwt ~ babysex + blength + delwt + gaweeks + mheight + mrace + ppwt +smoken, data = birth_data)),
    model_length_ga     = map(train, \(df) lm(bwt ~ blength + gaweeks, data = birth_data)),
    model_head_len_sex_interactions  = map(train, \(df)  lm(bwt ~ bhead * blength * babysex, data = birth_data))) |> 
  mutate(
    rmse_initial = map2_dbl(initial_model, test, \(mod, df) rmse(model = mod, data = df)),
    rmse_length_ga  = map2_dbl(model_length_ga, test, \(mod, df) rmse(model = mod, data = df)),
    rmse_head_len_sex_interactions = map2_dbl(model_head_len_sex_interactions, test, \(mod, df) rmse(model = mod, data = df)))

print(cv_df)
```

    ## # A tibble: 100 × 9
    ##    train    test     .id   initial_model model_length_ga model_head_len_sex_in…¹
    ##    <list>   <list>   <chr> <list>        <list>          <list>                 
    ##  1 <tibble> <tibble> 001   <lm>          <lm>            <lm>                   
    ##  2 <tibble> <tibble> 002   <lm>          <lm>            <lm>                   
    ##  3 <tibble> <tibble> 003   <lm>          <lm>            <lm>                   
    ##  4 <tibble> <tibble> 004   <lm>          <lm>            <lm>                   
    ##  5 <tibble> <tibble> 005   <lm>          <lm>            <lm>                   
    ##  6 <tibble> <tibble> 006   <lm>          <lm>            <lm>                   
    ##  7 <tibble> <tibble> 007   <lm>          <lm>            <lm>                   
    ##  8 <tibble> <tibble> 008   <lm>          <lm>            <lm>                   
    ##  9 <tibble> <tibble> 009   <lm>          <lm>            <lm>                   
    ## 10 <tibble> <tibble> 010   <lm>          <lm>            <lm>                   
    ## # ℹ 90 more rows
    ## # ℹ abbreviated name: ¹​model_head_len_sex_interactions
    ## # ℹ 3 more variables: rmse_initial <dbl>, rmse_length_ga <dbl>,
    ## #   rmse_head_len_sex_interactions <dbl>
…
